%YAML 1.1
%TAG !u! tag:unity3d.com,2011:
--- !u!29 &1
OcclusionCullingSettings:
  m_ObjectHideFlags: 0
  serializedVersion: 2
  m_OcclusionBakeSettings:
    smallestOccluder: 5
    smallestHole: 0.25
    backfaceThreshold: 100
  m_SceneGUID: 00000000000000000000000000000000
  m_OcclusionCullingData: {fileID: 0}
--- !u!104 &2
RenderSettings:
  m_ObjectHideFlags: 0
  serializedVersion: 9
  m_Fog: 0
  m_FogColor: {r: 0.5, g: 0.5, b: 0.5, a: 1}
  m_FogMode: 3
  m_FogDensity: 0.01
  m_LinearFogStart: 0
  m_LinearFogEnd: 300
  m_AmbientSkyColor: {r: 0.212, g: 0.227, b: 0.259, a: 1}
  m_AmbientEquatorColor: {r: 0.114, g: 0.125, b: 0.133, a: 1}
  m_AmbientGroundColor: {r: 0.047, g: 0.043, b: 0.035, a: 1}
  m_AmbientIntensity: 0.6
  m_AmbientMode: 0
  m_SubtractiveShadowColor: {r: 0.42, g: 0.478, b: 0.627, a: 1}
  m_SkyboxMaterial: {fileID: 10304, guid: 0000000000000000f000000000000000, type: 0}
  m_HaloStrength: 0.5
  m_FlareStrength: 1
  m_FlareFadeSpeed: 3
  m_HaloTexture: {fileID: 0}
  m_SpotCookie: {fileID: 10001, guid: 0000000000000000e000000000000000, type: 0}
  m_DefaultReflectionMode: 0
  m_DefaultReflectionResolution: 128
  m_ReflectionBounces: 1
  m_ReflectionIntensity: 0.11
  m_CustomReflection: {fileID: 0}
  m_Sun: {fileID: 0}
  m_IndirectSpecularColor: {r: 0, g: 0, b: 0, a: 0.11}
  m_UseRadianceAmbientProbe: 0
--- !u!157 &3
LightmapSettings:
  m_ObjectHideFlags: 0
  serializedVersion: 12
  m_GIWorkflowMode: 1
  m_GISettings:
    serializedVersion: 2
    m_BounceScale: 1
    m_IndirectOutputScale: 0
    m_AlbedoBoost: 1
    m_EnvironmentLightingMode: 0
    m_EnableBakedLightmaps: 1
    m_EnableRealtimeLightmaps: 1
  m_LightmapEditorSettings:
    serializedVersion: 12
    m_Resolution: 2
    m_BakeResolution: 14
    m_AtlasSize: 1024
    m_AO: 0
    m_AOMaxDistance: 1
    m_CompAOExponent: 1
    m_CompAOExponentDirect: 0
    m_ExtractAmbientOcclusion: 0
    m_Padding: 2
    m_LightmapParameters: {fileID: 0}
    m_LightmapsBakeMode: 0
    m_TextureCompression: 1
    m_FinalGather: 0
    m_FinalGatherFiltering: 1
    m_FinalGatherRayCount: 256
    m_ReflectionCompression: 2
    m_MixedBakeMode: 1
    m_BakeBackend: 0
    m_PVRSampling: 1
    m_PVRDirectSampleCount: 32
    m_PVRSampleCount: 512
    m_PVRBounces: 2
    m_PVREnvironmentSampleCount: 512
    m_PVREnvironmentReferencePointCount: 2048
    m_PVRFilteringMode: 0
    m_PVRDenoiserTypeDirect: 0
    m_PVRDenoiserTypeIndirect: 0
    m_PVRDenoiserTypeAO: 0
    m_PVRFilterTypeDirect: 0
    m_PVRFilterTypeIndirect: 0
    m_PVRFilterTypeAO: 0
    m_PVREnvironmentMIS: 0
    m_PVRCulling: 1
    m_PVRFilteringGaussRadiusDirect: 1
    m_PVRFilteringGaussRadiusIndirect: 5
    m_PVRFilteringGaussRadiusAO: 2
    m_PVRFilteringAtrousPositionSigmaDirect: 0.5
    m_PVRFilteringAtrousPositionSigmaIndirect: 2
    m_PVRFilteringAtrousPositionSigmaAO: 1
    m_ExportTrainingData: 0
    m_TrainingDataDestination: TrainingData
    m_LightProbeSampleCountMultiplier: 4
  m_LightingDataAsset: {fileID: 0}
  m_LightingSettings: {fileID: 4890085278179872738, guid: 54f3ece40218e4674a9239b01068c4e8, type: 2}
--- !u!196 &4
NavMeshSettings:
  serializedVersion: 2
  m_ObjectHideFlags: 0
  m_BuildSettings:
    serializedVersion: 2
    agentTypeID: 0
    agentRadius: 0.5
    agentHeight: 2
    agentSlope: 45
    agentClimb: 0.4
    ledgeDropHeight: 0
    maxJumpAcrossDistance: 0
    minRegionArea: 2
    manualCellSize: 0
    cellSize: 0.16666667
    manualTileSize: 0
    tileSize: 256
    accuratePlacement: 0
    maxJobWorkers: 0
    preserveTilesOutsideBounds: 0
    debug:
      m_Flags: 0
  m_NavMeshData: {fileID: 0}
--- !u!1001 &24907755
PrefabInstance:
  m_ObjectHideFlags: 0
  serializedVersion: 2
  m_Modification:
    m_TransformParent: {fileID: 0}
    m_Modifications:
    - target: {fileID: 1000010000698968, guid: e52890ebb21e7704b8a5193fa0865463, type: 3}
      propertyPath: m_Name
      value: Wall_4-6 (10)
      objectReference: {fileID: 0}
    - target: {fileID: 4000011483901460, guid: e52890ebb21e7704b8a5193fa0865463, type: 3}
      propertyPath: m_RootOrder
      value: 7
      objectReference: {fileID: 0}
    - target: {fileID: 4000011483901460, guid: e52890ebb21e7704b8a5193fa0865463, type: 3}
      propertyPath: m_LocalPosition.x
      value: 5.095207
      objectReference: {fileID: 0}
    - target: {fileID: 4000011483901460, guid: e52890ebb21e7704b8a5193fa0865463, type: 3}
      propertyPath: m_LocalPosition.y
      value: -14.78
      objectReference: {fileID: 0}
    - target: {fileID: 4000011483901460, guid: e52890ebb21e7704b8a5193fa0865463, type: 3}
      propertyPath: m_LocalPosition.z
      value: -64.59
      objectReference: {fileID: 0}
    - target: {fileID: 4000011483901460, guid: e52890ebb21e7704b8a5193fa0865463, type: 3}
      propertyPath: m_LocalRotation.w
      value: 0.7071068
      objectReference: {fileID: 0}
    - target: {fileID: 4000011483901460, guid: e52890ebb21e7704b8a5193fa0865463, type: 3}
      propertyPath: m_LocalRotation.x
      value: -0.7071068
      objectReference: {fileID: 0}
    - target: {fileID: 4000011483901460, guid: e52890ebb21e7704b8a5193fa0865463, type: 3}
      propertyPath: m_LocalRotation.y
      value: 0
      objectReference: {fileID: 0}
    - target: {fileID: 4000011483901460, guid: e52890ebb21e7704b8a5193fa0865463, type: 3}
      propertyPath: m_LocalRotation.z
      value: -0
      objectReference: {fileID: 0}
    m_RemovedComponents: []
  m_SourcePrefab: {fileID: 100100000, guid: e52890ebb21e7704b8a5193fa0865463, type: 3}
--- !u!1001 &217065728
PrefabInstance:
  m_ObjectHideFlags: 0
  serializedVersion: 2
  m_Modification:
    m_TransformParent: {fileID: 0}
    m_Modifications:
    - target: {fileID: 4000010152385378, guid: 43a347f2cf3150b41a51c7e1f2e4296a, type: 3}
      propertyPath: m_RootOrder
      value: 13
      objectReference: {fileID: 0}
    - target: {fileID: 4000010152385378, guid: 43a347f2cf3150b41a51c7e1f2e4296a, type: 3}
      propertyPath: m_LocalPosition.x
      value: -1.9017487
      objectReference: {fileID: 0}
    - target: {fileID: 4000010152385378, guid: 43a347f2cf3150b41a51c7e1f2e4296a, type: 3}
      propertyPath: m_LocalPosition.y
      value: -14.866735
      objectReference: {fileID: 0}
    - target: {fileID: 4000010152385378, guid: 43a347f2cf3150b41a51c7e1f2e4296a, type: 3}
      propertyPath: m_LocalPosition.z
      value: -59.48
      objectReference: {fileID: 0}
    - target: {fileID: 4000010152385378, guid: 43a347f2cf3150b41a51c7e1f2e4296a, type: 3}
      propertyPath: m_LocalRotation.w
      value: 0.7071068
      objectReference: {fileID: 0}
    - target: {fileID: 4000010152385378, guid: 43a347f2cf3150b41a51c7e1f2e4296a, type: 3}
      propertyPath: m_LocalRotation.x
      value: -0.7071068
      objectReference: {fileID: 0}
    - target: {fileID: 4000010152385378, guid: 43a347f2cf3150b41a51c7e1f2e4296a, type: 3}
      propertyPath: m_LocalRotation.y
      value: 0
      objectReference: {fileID: 0}
    - target: {fileID: 4000010152385378, guid: 43a347f2cf3150b41a51c7e1f2e4296a, type: 3}
      propertyPath: m_LocalRotation.z
      value: -0
      objectReference: {fileID: 0}
    m_RemovedComponents: []
  m_SourcePrefab: {fileID: 100100000, guid: 43a347f2cf3150b41a51c7e1f2e4296a, type: 3}
--- !u!1001 &328228574
PrefabInstance:
  m_ObjectHideFlags: 0
  serializedVersion: 2
  m_Modification:
    m_TransformParent: {fileID: 0}
    m_Modifications:
    - target: {fileID: 1000011120062984, guid: 4ff6f15470d7c1a42a236d6249590dae, type: 3}
      propertyPath: m_Name
      value: Wall_1-4 (2)
      objectReference: {fileID: 0}
    - target: {fileID: 4000012076228146, guid: 4ff6f15470d7c1a42a236d6249590dae, type: 3}
      propertyPath: m_RootOrder
      value: 4
      objectReference: {fileID: 0}
    - target: {fileID: 4000012076228146, guid: 4ff6f15470d7c1a42a236d6249590dae, type: 3}
      propertyPath: m_LocalPosition.x
      value: 0.8620224
      objectReference: {fileID: 0}
    - target: {fileID: 4000012076228146, guid: 4ff6f15470d7c1a42a236d6249590dae, type: 3}
      propertyPath: m_LocalPosition.y
      value: -14.866735
      objectReference: {fileID: 0}
    - target: {fileID: 4000012076228146, guid: 4ff6f15470d7c1a42a236d6249590dae, type: 3}
      propertyPath: m_LocalPosition.z
      value: -68.49
      objectReference: {fileID: 0}
    - target: {fileID: 4000012076228146, guid: 4ff6f15470d7c1a42a236d6249590dae, type: 3}
      propertyPath: m_LocalRotation.w
      value: 0.7071068
      objectReference: {fileID: 0}
    - target: {fileID: 4000012076228146, guid: 4ff6f15470d7c1a42a236d6249590dae, type: 3}
      propertyPath: m_LocalRotation.x
      value: -0.7071068
      objectReference: {fileID: 0}
    - target: {fileID: 4000012076228146, guid: 4ff6f15470d7c1a42a236d6249590dae, type: 3}
      propertyPath: m_LocalRotation.y
      value: 0
      objectReference: {fileID: 0}
    - target: {fileID: 4000012076228146, guid: 4ff6f15470d7c1a42a236d6249590dae, type: 3}
      propertyPath: m_LocalRotation.z
      value: -0
      objectReference: {fileID: 0}
    m_RemovedComponents: []
  m_SourcePrefab: {fileID: 100100000, guid: 4ff6f15470d7c1a42a236d6249590dae, type: 3}
--- !u!1 &328270356
GameObject:
  m_ObjectHideFlags: 0
  m_CorrespondingSourceObject: {fileID: 0}
  m_PrefabInstance: {fileID: 0}
  m_PrefabAsset: {fileID: 0}
  serializedVersion: 6
  m_Component:
  - component: {fileID: 328270361}
  - component: {fileID: 328270360}
  - component: {fileID: 328270358}
  - component: {fileID: 328270357}
  - component: {fileID: 328270363}
  - component: {fileID: 328270362}
  m_Layer: 0
  m_Name: Main Camera
  m_TagString: MainCamera
  m_Icon: {fileID: 0}
  m_NavMeshLayer: 0
  m_StaticEditorFlags: 0
  m_IsActive: 1
--- !u!81 &328270357
AudioListener:
  m_ObjectHideFlags: 0
  m_CorrespondingSourceObject: {fileID: 0}
  m_PrefabInstance: {fileID: 0}
  m_PrefabAsset: {fileID: 0}
  m_GameObject: {fileID: 328270356}
  m_Enabled: 1
--- !u!124 &328270358
Behaviour:
  m_ObjectHideFlags: 0
  m_CorrespondingSourceObject: {fileID: 0}
  m_PrefabInstance: {fileID: 0}
  m_PrefabAsset: {fileID: 0}
  m_GameObject: {fileID: 328270356}
  m_Enabled: 1
--- !u!20 &328270360
Camera:
  m_ObjectHideFlags: 0
  m_CorrespondingSourceObject: {fileID: 0}
  m_PrefabInstance: {fileID: 0}
  m_PrefabAsset: {fileID: 0}
  m_GameObject: {fileID: 328270356}
  m_Enabled: 1
  serializedVersion: 2
  m_ClearFlags: 1
  m_BackGroundColor: {r: 0.19215687, g: 0.3019608, b: 0.4745098, a: 0}
  m_projectionMatrixMode: 1
  m_GateFitMode: 2
  m_FOVAxisMode: 0
  m_SensorSize: {x: 36, y: 24}
  m_LensShift: {x: 0, y: 0}
  m_FocalLength: 50
  m_NormalizedViewPortRect:
    serializedVersion: 2
    x: 0
    y: 0
    width: 1
    height: 1
  near clip plane: 0.3
  far clip plane: 1000
  field of view: 60
  orthographic: 0
  orthographic size: 7.2
  m_Depth: -1
  m_CullingMask:
    serializedVersion: 2
    m_Bits: 4294967295
  m_RenderingPath: -1
  m_TargetTexture: {fileID: 0}
  m_TargetDisplay: 0
  m_TargetEye: 3
  m_HDR: 0
  m_AllowMSAA: 1
  m_AllowDynamicResolution: 0
  m_ForceIntoRT: 0
  m_OcclusionCulling: 1
  m_StereoConvergence: 10
  m_StereoSeparation: 0.022
--- !u!4 &328270361
Transform:
  m_ObjectHideFlags: 0
  m_CorrespondingSourceObject: {fileID: 0}
  m_PrefabInstance: {fileID: 0}
  m_PrefabAsset: {fileID: 0}
  m_GameObject: {fileID: 328270356}
  m_LocalRotation: {x: 0.24449152, y: 0.5791694, z: -0.18762484, w: 0.7547077}
  m_LocalPosition: {x: -12.396, y: -5.641, z: -68.807}
  m_LocalScale: {x: 1, y: 1, z: 1}
  m_Children: []
  m_Father: {fileID: 0}
  m_RootOrder: 0
  m_LocalEulerAnglesHint: {x: 35.893, y: 75.314, z: 0}
--- !u!114 &328270362
MonoBehaviour:
  m_ObjectHideFlags: 0
  m_CorrespondingSourceObject: {fileID: 0}
  m_PrefabInstance: {fileID: 0}
  m_PrefabAsset: {fileID: 0}
  m_GameObject: {fileID: 328270356}
  m_Enabled: 0
  m_EditorHideFlags: 0
  m_Script: {fileID: 11500000, guid: bd70d448b18cfbc46af26466f752332c, type: 3}
  m_Name: 
  m_EditorClassIdentifier: 
  visualizeFocus: 0
  focalLength: 10
  focalSize: 0.05
  aperture: 0.43
  focalTransform: {fileID: 0}
  maxBlurSize: 2
  highResolution: 0
  blurType: 0
  blurSampleCount: 2
  nearBlur: 0
  foregroundOverlap: 1
  dofHdrShader: {fileID: 4800000, guid: acd613035ff3e455e8abf23fdc8c8c24, type: 3}
  dx11BokehShader: {fileID: 4800000, guid: d8e82664aa8686642a424c88ab10164a, type: 3}
  dx11BokehThreshold: 0.5
  dx11SpawnHeuristic: 0.0875
  dx11BokehTexture: {fileID: 2800000, guid: a4cdca73d61814d33ac1587f6c163bca, type: 3}
  dx11BokehScale: 1.2
  dx11BokehIntensity: 2.5
--- !u!114 &328270363
MonoBehaviour:
  m_ObjectHideFlags: 0
  m_CorrespondingSourceObject: {fileID: 0}
  m_PrefabInstance: {fileID: 0}
  m_PrefabAsset: {fileID: 0}
  m_GameObject: {fileID: 328270356}
  m_Enabled: 1
  m_EditorHideFlags: 0
  m_Script: {fileID: 11500000, guid: 4975a6e437fc3b149a8cd508ce5bdd69, type: 3}
  m_Name: 
  m_EditorClassIdentifier: 
  threshold: 0.13
  intensity: 0.45
  blurSize: 1.37
  blurIterations: 1
  blurType: 0
  fastBloomShader: {fileID: 4800000, guid: 68a00c837b82e4c6d92e7da765dc5f1d, type: 3}
--- !u!1001 &471302405
PrefabInstance:
  m_ObjectHideFlags: 0
  serializedVersion: 2
  m_Modification:
    m_TransformParent: {fileID: 0}
    m_Modifications:
    - target: {fileID: 1000010440211480, guid: 476aa7c6684630c4fb9e976857439619, type: 3}
      propertyPath: m_Name
      value: floor_4-6 (1)
      objectReference: {fileID: 0}
    - target: {fileID: 4000011520576250, guid: 476aa7c6684630c4fb9e976857439619, type: 3}
      propertyPath: m_RootOrder
      value: 12
      objectReference: {fileID: 0}
    - target: {fileID: 4000011520576250, guid: 476aa7c6684630c4fb9e976857439619, type: 3}
      propertyPath: m_LocalPosition.x
      value: -2.0410614
      objectReference: {fileID: 0}
    - target: {fileID: 4000011520576250, guid: 476aa7c6684630c4fb9e976857439619, type: 3}
      propertyPath: m_LocalPosition.y
      value: -14.866735
      objectReference: {fileID: 0}
    - target: {fileID: 4000011520576250, guid: 476aa7c6684630c4fb9e976857439619, type: 3}
      propertyPath: m_LocalPosition.z
      value: -65.12
      objectReference: {fileID: 0}
    - target: {fileID: 4000011520576250, guid: 476aa7c6684630c4fb9e976857439619, type: 3}
      propertyPath: m_LocalRotation.w
      value: 0.7071068
      objectReference: {fileID: 0}
    - target: {fileID: 4000011520576250, guid: 476aa7c6684630c4fb9e976857439619, type: 3}
      propertyPath: m_LocalRotation.x
      value: -0.7071068
      objectReference: {fileID: 0}
    - target: {fileID: 4000011520576250, guid: 476aa7c6684630c4fb9e976857439619, type: 3}
      propertyPath: m_LocalRotation.y
      value: 0
      objectReference: {fileID: 0}
    - target: {fileID: 4000011520576250, guid: 476aa7c6684630c4fb9e976857439619, type: 3}
      propertyPath: m_LocalRotation.z
      value: -0
      objectReference: {fileID: 0}
    m_RemovedComponents: []
  m_SourcePrefab: {fileID: 100100000, guid: 476aa7c6684630c4fb9e976857439619, type: 3}
--- !u!1001 &538547439
PrefabInstance:
  m_ObjectHideFlags: 0
  serializedVersion: 2
  m_Modification:
    m_TransformParent: {fileID: 0}
    m_Modifications:
    - target: {fileID: 1000011301613728, guid: 0b9662d841a209a4e9138ee7c203c0e9, type: 3}
      propertyPath: m_Name
      value: support (9)
      objectReference: {fileID: 0}
    - target: {fileID: 4000012009567188, guid: 0b9662d841a209a4e9138ee7c203c0e9, type: 3}
      propertyPath: m_RootOrder
      value: 5
      objectReference: {fileID: 0}
    - target: {fileID: 4000012009567188, guid: 0b9662d841a209a4e9138ee7c203c0e9, type: 3}
      propertyPath: m_LocalPosition.x
      value: 5.443014
      objectReference: {fileID: 0}
    - target: {fileID: 4000012009567188, guid: 0b9662d841a209a4e9138ee7c203c0e9, type: 3}
      propertyPath: m_LocalPosition.y
      value: -14.866735
      objectReference: {fileID: 0}
    - target: {fileID: 4000012009567188, guid: 0b9662d841a209a4e9138ee7c203c0e9, type: 3}
      propertyPath: m_LocalPosition.z
      value: -59.96
      objectReference: {fileID: 0}
    - target: {fileID: 4000012009567188, guid: 0b9662d841a209a4e9138ee7c203c0e9, type: 3}
      propertyPath: m_LocalRotation.w
      value: 0.7071068
      objectReference: {fileID: 0}
    - target: {fileID: 4000012009567188, guid: 0b9662d841a209a4e9138ee7c203c0e9, type: 3}
      propertyPath: m_LocalRotation.x
      value: -0.7071068
      objectReference: {fileID: 0}
    - target: {fileID: 4000012009567188, guid: 0b9662d841a209a4e9138ee7c203c0e9, type: 3}
      propertyPath: m_LocalRotation.y
      value: 0
      objectReference: {fileID: 0}
    - target: {fileID: 4000012009567188, guid: 0b9662d841a209a4e9138ee7c203c0e9, type: 3}
      propertyPath: m_LocalRotation.z
      value: -0
      objectReference: {fileID: 0}
    m_RemovedComponents: []
  m_SourcePrefab: {fileID: 100100000, guid: 0b9662d841a209a4e9138ee7c203c0e9, type: 3}
--- !u!1 &573457915
GameObject:
  m_ObjectHideFlags: 0
  m_CorrespondingSourceObject: {fileID: 0}
  m_PrefabInstance: {fileID: 0}
  m_PrefabAsset: {fileID: 0}
  serializedVersion: 6
  m_Component:
  - component: {fileID: 573457917}
  - component: {fileID: 573457916}
  m_Layer: 0
  m_Name: Directional Light
  m_TagString: Untagged
  m_Icon: {fileID: 0}
  m_NavMeshLayer: 0
  m_StaticEditorFlags: 0
  m_IsActive: 1
--- !u!108 &573457916
Light:
  m_ObjectHideFlags: 0
  m_CorrespondingSourceObject: {fileID: 0}
  m_PrefabInstance: {fileID: 0}
  m_PrefabAsset: {fileID: 0}
  m_GameObject: {fileID: 573457915}
  m_Enabled: 1
  serializedVersion: 10
  m_Type: 1
  m_Shape: 0
  m_Color: {r: 1, g: 0.95686275, b: 0.8392157, a: 1}
  m_Intensity: 1.2
  m_Range: 10
  m_SpotAngle: 30
  m_InnerSpotAngle: 21.802082
  m_CookieSize: 10
  m_Shadows:
    m_Type: 2
    m_Resolution: -1
    m_CustomResolution: -1
    m_Strength: 1
    m_Bias: 0.05
    m_NormalBias: 0.4
    m_NearPlane: 0.2
    m_CullingMatrixOverride:
      e00: 1
      e01: 0
      e02: 0
      e03: 0
      e10: 0
      e11: 1
      e12: 0
      e13: 0
      e20: 0
      e21: 0
      e22: 1
      e23: 0
      e30: 0
      e31: 0
      e32: 0
      e33: 1
    m_UseCullingMatrixOverride: 0
  m_Cookie: {fileID: 0}
  m_DrawHalo: 0
  m_Flare: {fileID: 0}
  m_RenderMode: 0
  m_CullingMask:
    serializedVersion: 2
    m_Bits: 4294967295
  m_RenderingLayerMask: 1
  m_Lightmapping: 4
  m_LightShadowCasterMode: 0
  m_AreaSize: {x: 1, y: 1}
  m_BounceIntensity: 1
  m_ColorTemperature: 6570
  m_UseColorTemperature: 0
  m_BoundingSphereOverride: {x: 0, y: 0, z: 0, w: 0}
  m_UseBoundingSphereOverride: 0
  m_UseViewFrustumForShadowCasterCull: 1
  m_ShadowRadius: 0
  m_ShadowAngle: 0
--- !u!4 &573457917
Transform:
  m_ObjectHideFlags: 0
  m_CorrespondingSourceObject: {fileID: 0}
  m_PrefabInstance: {fileID: 0}
  m_PrefabAsset: {fileID: 0}
  m_GameObject: {fileID: 573457915}
  m_LocalRotation: {x: -0.33616757, y: 0.1960442, z: -0.07176139, w: -0.9183727}
  m_LocalPosition: {x: 0, y: 26.6, z: 0}
  m_LocalScale: {x: 1, y: 1, z: 1}
  m_Children: []
  m_Father: {fileID: 0}
  m_RootOrder: 14
  m_LocalEulerAnglesHint: {x: 40.21, y: 335.9, z: 0}
--- !u!1001 &761212283
PrefabInstance:
  m_ObjectHideFlags: 0
  serializedVersion: 2
  m_Modification:
    m_TransformParent: {fileID: 0}
    m_Modifications:
    - target: {fileID: 1000014249080164, guid: b4bb0068f29ebb54487c4154fba6f55f, type: 3}
      propertyPath: m_Name
      value: floor_6-6 (26)
      objectReference: {fileID: 0}
    - target: {fileID: 4000012771917564, guid: b4bb0068f29ebb54487c4154fba6f55f, type: 3}
      propertyPath: m_RootOrder
      value: 11
      objectReference: {fileID: 0}
    - target: {fileID: 4000012771917564, guid: b4bb0068f29ebb54487c4154fba6f55f, type: 3}
      propertyPath: m_LocalPosition.x
      value: 4.9164295
      objectReference: {fileID: 0}
    - target: {fileID: 4000012771917564, guid: b4bb0068f29ebb54487c4154fba6f55f, type: 3}
      propertyPath: m_LocalPosition.y
      value: -14.866735
      objectReference: {fileID: 0}
    - target: {fileID: 4000012771917564, guid: b4bb0068f29ebb54487c4154fba6f55f, type: 3}
      propertyPath: m_LocalPosition.z
      value: -64.92
      objectReference: {fileID: 0}
    - target: {fileID: 4000012771917564, guid: b4bb0068f29ebb54487c4154fba6f55f, type: 3}
      propertyPath: m_LocalRotation.w
      value: 0.7071068
      objectReference: {fileID: 0}
    - target: {fileID: 4000012771917564, guid: b4bb0068f29ebb54487c4154fba6f55f, type: 3}
      propertyPath: m_LocalRotation.x
      value: -0.7071068
      objectReference: {fileID: 0}
    - target: {fileID: 4000012771917564, guid: b4bb0068f29ebb54487c4154fba6f55f, type: 3}
      propertyPath: m_LocalRotation.y
      value: 0
      objectReference: {fileID: 0}
    - target: {fileID: 4000012771917564, guid: b4bb0068f29ebb54487c4154fba6f55f, type: 3}
      propertyPath: m_LocalRotation.z
      value: -0
      objectReference: {fileID: 0}
    m_RemovedComponents: []
  m_SourcePrefab: {fileID: 100100000, guid: b4bb0068f29ebb54487c4154fba6f55f, type: 3}
--- !u!1001 &784043817
PrefabInstance:
  m_ObjectHideFlags: 0
  serializedVersion: 2
  m_Modification:
    m_TransformParent: {fileID: 0}
    m_Modifications:
    - target: {fileID: 4000010041642444, guid: 6a505574226cba14e8279a4e2ec9e849, type: 3}
      propertyPath: m_RootOrder
      value: 2
      objectReference: {fileID: 0}
    - target: {fileID: 4000010041642444, guid: 6a505574226cba14e8279a4e2ec9e849, type: 3}
      propertyPath: m_LocalPosition.x
      value: -4.41
      objectReference: {fileID: 0}
    - target: {fileID: 4000010041642444, guid: 6a505574226cba14e8279a4e2ec9e849, type: 3}
      propertyPath: m_LocalPosition.y
      value: -14.19
      objectReference: {fileID: 0}
    - target: {fileID: 4000010041642444, guid: 6a505574226cba14e8279a4e2ec9e849, type: 3}
      propertyPath: m_LocalPosition.z
      value: -70.98
      objectReference: {fileID: 0}
    - target: {fileID: 4000010041642444, guid: 6a505574226cba14e8279a4e2ec9e849, type: 3}
      propertyPath: m_LocalRotation.w
      value: -0.70710605
      objectReference: {fileID: 0}
    - target: {fileID: 4000010041642444, guid: 6a505574226cba14e8279a4e2ec9e849, type: 3}
      propertyPath: m_LocalRotation.x
      value: -0.70710754
      objectReference: {fileID: 0}
    - target: {fileID: 4000010041642444, guid: 6a505574226cba14e8279a4e2ec9e849, type: 3}
      propertyPath: m_LocalRotation.y
      value: -0
      objectReference: {fileID: 0}
    - target: {fileID: 4000010041642444, guid: 6a505574226cba14e8279a4e2ec9e849, type: 3}
      propertyPath: m_LocalRotation.z
      value: -0
      objectReference: {fileID: 0}
    - target: {fileID: 4000010041642444, guid: 6a505574226cba14e8279a4e2ec9e849, type: 3}
      propertyPath: m_LocalEulerAnglesHint.x
      value: -270.01898
      objectReference: {fileID: 0}
    m_RemovedComponents: []
  m_SourcePrefab: {fileID: 100100000, guid: 6a505574226cba14e8279a4e2ec9e849, type: 3}
--- !u!1001 &1122617597
PrefabInstance:
  m_ObjectHideFlags: 0
  serializedVersion: 2
  m_Modification:
    m_TransformParent: {fileID: 0}
    m_Modifications:
    - target: {fileID: 4000010196736360, guid: ea2cd1846f306304bbe1ffcedbb819c7, type: 3}
      propertyPath: m_RootOrder
      value: 1
      objectReference: {fileID: 0}
    - target: {fileID: 4000010196736360, guid: ea2cd1846f306304bbe1ffcedbb819c7, type: 3}
      propertyPath: m_LocalPosition.x
      value: -1.7820053
      objectReference: {fileID: 0}
    - target: {fileID: 4000010196736360, guid: ea2cd1846f306304bbe1ffcedbb819c7, type: 3}
      propertyPath: m_LocalPosition.y
      value: -14.575
      objectReference: {fileID: 0}
    - target: {fileID: 4000010196736360, guid: ea2cd1846f306304bbe1ffcedbb819c7, type: 3}
      propertyPath: m_LocalPosition.z
      value: -55.38
      objectReference: {fileID: 0}
    - target: {fileID: 4000010196736360, guid: ea2cd1846f306304bbe1ffcedbb819c7, type: 3}
      propertyPath: m_LocalRotation.w
      value: -0.7070904
      objectReference: {fileID: 0}
    - target: {fileID: 4000010196736360, guid: ea2cd1846f306304bbe1ffcedbb819c7, type: 3}
      propertyPath: m_LocalRotation.x
      value: -0.7071232
      objectReference: {fileID: 0}
    - target: {fileID: 4000010196736360, guid: ea2cd1846f306304bbe1ffcedbb819c7, type: 3}
      propertyPath: m_LocalRotation.y
      value: -0
      objectReference: {fileID: 0}
    - target: {fileID: 4000010196736360, guid: ea2cd1846f306304bbe1ffcedbb819c7, type: 3}
      propertyPath: m_LocalRotation.z
      value: -0
      objectReference: {fileID: 0}
    - target: {fileID: 4000010196736360, guid: ea2cd1846f306304bbe1ffcedbb819c7, type: 3}
      propertyPath: m_LocalEulerAnglesHint.x
      value: -270.01898
      objectReference: {fileID: 0}
    m_RemovedComponents: []
  m_SourcePrefab: {fileID: 100100000, guid: ea2cd1846f306304bbe1ffcedbb819c7, type: 3}
--- !u!1001 &1320310011
PrefabInstance:
  m_ObjectHideFlags: 0
  serializedVersion: 2
  m_Modification:
    m_TransformParent: {fileID: 0}
    m_Modifications:
    - target: {fileID: 1000012735760268, guid: a35c43ed8a4013b4fb40b938e414ff25, type: 3}
      propertyPath: m_Name
      value: Wall_4-4 (7)
      objectReference: {fileID: 0}
    - target: {fileID: 4000012819753398, guid: a35c43ed8a4013b4fb40b938e414ff25, type: 3}
      propertyPath: m_RootOrder
      value: 6
      objectReference: {fileID: 0}
    - target: {fileID: 4000012819753398, guid: a35c43ed8a4013b4fb40b938e414ff25, type: 3}
      propertyPath: m_LocalPosition.x
      value: 2.9783993
      objectReference: {fileID: 0}
    - target: {fileID: 4000012819753398, guid: a35c43ed8a4013b4fb40b938e414ff25, type: 3}
      propertyPath: m_LocalPosition.y
      value: -14.866735
      objectReference: {fileID: 0}
    - target: {fileID: 4000012819753398, guid: a35c43ed8a4013b4fb40b938e414ff25, type: 3}
      propertyPath: m_LocalPosition.z
      value: -70.37
      objectReference: {fileID: 0}
    - target: {fileID: 4000012819753398, guid: a35c43ed8a4013b4fb40b938e414ff25, type: 3}
      propertyPath: m_LocalRotation.w
      value: 0.7071068
      objectReference: {fileID: 0}
    - target: {fileID: 4000012819753398, guid: a35c43ed8a4013b4fb40b938e414ff25, type: 3}
      propertyPath: m_LocalRotation.x
      value: -0.7071068
      objectReference: {fileID: 0}
    - target: {fileID: 4000012819753398, guid: a35c43ed8a4013b4fb40b938e414ff25, type: 3}
      propertyPath: m_LocalRotation.y
      value: 0
      objectReference: {fileID: 0}
    - target: {fileID: 4000012819753398, guid: a35c43ed8a4013b4fb40b938e414ff25, type: 3}
      propertyPath: m_LocalRotation.z
      value: -0
      objectReference: {fileID: 0}
    m_RemovedComponents: []
  m_SourcePrefab: {fileID: 100100000, guid: a35c43ed8a4013b4fb40b938e414ff25, type: 3}
--- !u!1 &1402865872
GameObject:
  m_ObjectHideFlags: 0
  m_CorrespondingSourceObject: {fileID: 0}
  m_PrefabInstance: {fileID: 0}
  m_PrefabAsset: {fileID: 0}
  serializedVersion: 6
  m_Component:
  - component: {fileID: 1402865874}
  - component: {fileID: 1402865873}
  m_Layer: 0
  m_Name: Reflection Probe
  m_TagString: Untagged
  m_Icon: {fileID: 0}
  m_NavMeshLayer: 0
  m_StaticEditorFlags: 0
  m_IsActive: 1
--- !u!215 &1402865873
ReflectionProbe:
  m_ObjectHideFlags: 0
  m_CorrespondingSourceObject: {fileID: 0}
  m_PrefabInstance: {fileID: 0}
  m_PrefabAsset: {fileID: 0}
  m_GameObject: {fileID: 1402865872}
  m_Enabled: 1
  serializedVersion: 2
  m_Type: 0
  m_Mode: 0
  m_RefreshMode: 0
  m_TimeSlicingMode: 0
  m_Resolution: 128
  m_UpdateFrequency: 0
  m_BoxSize: {x: 40, y: 40, z: 40}
  m_BoxOffset: {x: 0, y: 0, z: 0}
  m_NearClip: 0.3
  m_FarClip: 1000
  m_ShadowDistance: 100
  m_ClearFlags: 1
  m_BackGroundColor: {r: 0.19215687, g: 0.3019608, b: 0.4745098, a: 0}
  m_CullingMask:
    serializedVersion: 2
    m_Bits: 4294967295
  m_IntensityMultiplier: 1
  m_BlendDistance: 1
  m_HDR: 1
  m_BoxProjection: 0
  m_RenderDynamicObjects: 0
  m_UseOcclusionCulling: 1
  m_Importance: 1
  m_CustomBakedTexture: {fileID: 0}
--- !u!4 &1402865874
Transform:
  m_ObjectHideFlags: 0
  m_CorrespondingSourceObject: {fileID: 0}
  m_PrefabInstance: {fileID: 0}
  m_PrefabAsset: {fileID: 0}
  m_GameObject: {fileID: 1402865872}
  m_LocalRotation: {x: 0, y: 0, z: 0, w: 1}
  m_LocalPosition: {x: -1.41, y: -1.285, z: -63.29}
  m_LocalScale: {x: 1, y: 1, z: 1}
  m_Children: []
  m_Father: {fileID: 0}
  m_RootOrder: 16
  m_LocalEulerAnglesHint: {x: 0, y: 0, z: 0}
--- !u!1001 &1427948742
PrefabInstance:
  m_ObjectHideFlags: 0
  serializedVersion: 2
  m_Modification:
    m_TransformParent: {fileID: 0}
    m_Modifications:
    - target: {fileID: 1000012079814762, guid: f3418d4e848286248b7f54af9ce7c818, type: 3}
      propertyPath: m_Name
      value: doorway_4-4 (6)
      objectReference: {fileID: 0}
    - target: {fileID: 4000013096587670, guid: f3418d4e848286248b7f54af9ce7c818, type: 3}
      propertyPath: m_RootOrder
      value: 8
      objectReference: {fileID: 0}
    - target: {fileID: 4000013096587670, guid: f3418d4e848286248b7f54af9ce7c818, type: 3}
      propertyPath: m_LocalPosition.x
      value: 3.96
      objectReference: {fileID: 0}
    - target: {fileID: 4000013096587670, guid: f3418d4e848286248b7f54af9ce7c818, type: 3}
      propertyPath: m_LocalPosition.y
      value: -14.866735
      objectReference: {fileID: 0}
    - target: {fileID: 4000013096587670, guid: f3418d4e848286248b7f54af9ce7c818, type: 3}
      propertyPath: m_LocalPosition.z
      value: -56.78
      objectReference: {fileID: 0}
    - target: {fileID: 4000013096587670, guid: f3418d4e848286248b7f54af9ce7c818, type: 3}
      propertyPath: m_LocalRotation.w
      value: 0.7071068
      objectReference: {fileID: 0}
    - target: {fileID: 4000013096587670, guid: f3418d4e848286248b7f54af9ce7c818, type: 3}
      propertyPath: m_LocalRotation.x
      value: -0.7071068
      objectReference: {fileID: 0}
    - target: {fileID: 4000013096587670, guid: f3418d4e848286248b7f54af9ce7c818, type: 3}
      propertyPath: m_LocalRotation.y
      value: 0
      objectReference: {fileID: 0}
    - target: {fileID: 4000013096587670, guid: f3418d4e848286248b7f54af9ce7c818, type: 3}
      propertyPath: m_LocalRotation.z
      value: -0
      objectReference: {fileID: 0}
    m_RemovedComponents: []
  m_SourcePrefab: {fileID: 100100000, guid: f3418d4e848286248b7f54af9ce7c818, type: 3}
--- !u!1001 &1920079888
PrefabInstance:
  m_ObjectHideFlags: 0
  serializedVersion: 2
  m_Modification:
    m_TransformParent: {fileID: 0}
    m_Modifications:
    - target: {fileID: 1000013519841002, guid: 537ce066f9e5e874c8efdb9782ee5f6b, type: 3}
      propertyPath: m_Name
      value: Wall_2-4 (3)
      objectReference: {fileID: 0}
    - target: {fileID: 4000013122899636, guid: 537ce066f9e5e874c8efdb9782ee5f6b, type: 3}
      propertyPath: m_RootOrder
      value: 3
      objectReference: {fileID: 0}
    - target: {fileID: 4000013122899636, guid: 537ce066f9e5e874c8efdb9782ee5f6b, type: 3}
      propertyPath: m_LocalPosition.x
      value: 1.1080856
      objectReference: {fileID: 0}
    - target: {fileID: 4000013122899636, guid: 537ce066f9e5e874c8efdb9782ee5f6b, type: 3}
      propertyPath: m_LocalPosition.y
      value: -14.866735
      objectReference: {fileID: 0}
    - target: {fileID: 4000013122899636, guid: 537ce066f9e5e874c8efdb9782ee5f6b, type: 3}
      propertyPath: m_LocalPosition.z
      value: -53.68
      objectReference: {fileID: 0}
    - target: {fileID: 4000013122899636, guid: 537ce066f9e5e874c8efdb9782ee5f6b, type: 3}
      propertyPath: m_LocalRotation.w
      value: 0.7071068
      objectReference: {fileID: 0}
    - target: {fileID: 4000013122899636, guid: 537ce066f9e5e874c8efdb9782ee5f6b, type: 3}
      propertyPath: m_LocalRotation.x
      value: -0.7071068
      objectReference: {fileID: 0}
    - target: {fileID: 4000013122899636, guid: 537ce066f9e5e874c8efdb9782ee5f6b, type: 3}
      propertyPath: m_LocalRotation.y
      value: 0
      objectReference: {fileID: 0}
    - target: {fileID: 4000013122899636, guid: 537ce066f9e5e874c8efdb9782ee5f6b, type: 3}
      propertyPath: m_LocalRotation.z
      value: -0
      objectReference: {fileID: 0}
    m_RemovedComponents: []
  m_SourcePrefab: {fileID: 100100000, guid: 537ce066f9e5e874c8efdb9782ee5f6b, type: 3}
--- !u!1 &1930275383
GameObject:
  m_ObjectHideFlags: 0
  m_CorrespondingSourceObject: {fileID: 0}
  m_PrefabInstance: {fileID: 0}
  m_PrefabAsset: {fileID: 0}
  serializedVersion: 6
  m_Component:
  - component: {fileID: 1930275387}
  - component: {fileID: 1930275386}
  - component: {fileID: 1930275385}
  - component: {fileID: 1930275384}
  m_Layer: 0
  m_Name: Plane
  m_TagString: Untagged
  m_Icon: {fileID: 0}
  m_NavMeshLayer: 0
  m_StaticEditorFlags: 4294967295
  m_IsActive: 1
--- !u!23 &1930275384
MeshRenderer:
  m_ObjectHideFlags: 0
  m_CorrespondingSourceObject: {fileID: 0}
  m_PrefabInstance: {fileID: 0}
  m_PrefabAsset: {fileID: 0}
  m_GameObject: {fileID: 1930275383}
  m_Enabled: 1
  m_CastShadows: 1
  m_ReceiveShadows: 1
  m_DynamicOccludee: 1
  m_MotionVectors: 1
  m_LightProbeUsage: 1
  m_ReflectionProbeUsage: 1
  m_RayTracingMode: 2
  m_RayTraceProcedural: 0
  m_RenderingLayerMask: 1
  m_RendererPriority: 0
  m_Materials:
  - {fileID: 2100000, guid: 5494f509f236dfc489c3464e5586047e, type: 2}
  m_StaticBatchInfo:
    firstSubMesh: 0
    subMeshCount: 0
  m_StaticBatchRoot: {fileID: 0}
  m_ProbeAnchor: {fileID: 0}
  m_LightProbeVolumeOverride: {fileID: 0}
  m_ScaleInLightmap: 1
  m_ReceiveGI: 1
  m_PreserveUVs: 1
  m_IgnoreNormalsForChartDetection: 0
  m_ImportantGI: 0
  m_StitchLightmapSeams: 1
  m_SelectedEditorRenderState: 3
  m_MinimumChartSize: 4
  m_AutoUVMaxDistance: 0.5
  m_AutoUVMaxAngle: 89
  m_LightmapParameters: {fileID: 0}
  m_SortingLayerID: 0
  m_SortingLayer: 0
  m_SortingOrder: 0
  m_AdditionalVertexStreams: {fileID: 0}
--- !u!64 &1930275385
MeshCollider:
  m_ObjectHideFlags: 0
  m_CorrespondingSourceObject: {fileID: 0}
  m_PrefabInstance: {fileID: 0}
  m_PrefabAsset: {fileID: 0}
  m_GameObject: {fileID: 1930275383}
  m_Material: {fileID: 0}
  m_IsTrigger: 0
  m_Enabled: 1
  serializedVersion: 4
  m_Convex: 0
  m_CookingOptions: 30
  m_Mesh: {fileID: 10209, guid: 0000000000000000e000000000000000, type: 0}
--- !u!33 &1930275386
MeshFilter:
  m_ObjectHideFlags: 0
  m_CorrespondingSourceObject: {fileID: 0}
  m_PrefabInstance: {fileID: 0}
  m_PrefabAsset: {fileID: 0}
  m_GameObject: {fileID: 1930275383}
  m_Mesh: {fileID: 10209, guid: 0000000000000000e000000000000000, type: 0}
--- !u!4 &1930275387
Transform:
  m_ObjectHideFlags: 0
  m_CorrespondingSourceObject: {fileID: 0}
  m_PrefabInstance: {fileID: 0}
  m_PrefabAsset: {fileID: 0}
  m_GameObject: {fileID: 1930275383}
  m_LocalRotation: {x: 0, y: 0, z: 0, w: 1}
  m_LocalPosition: {x: 33.78311, y: -14.866735, z: -62.02}
  m_LocalScale: {x: 15, y: 15, z: 15}
  m_Children: []
  m_Father: {fileID: 0}
  m_RootOrder: 15
  m_LocalEulerAnglesHint: {x: 0, y: 0, z: 0}
--- !u!1001 &1965259982
PrefabInstance:
  m_ObjectHideFlags: 0
  serializedVersion: 2
  m_Modification:
    m_TransformParent: {fileID: 0}
    m_Modifications:
    - target: {fileID: 1000013300320050, guid: 42cdbd2d596a8744daf927b060eb1ffb, type: 3}
      propertyPath: m_Name
      value: doorway_2-4 (1)
      objectReference: {fileID: 0}
    - target: {fileID: 4000010670910742, guid: 42cdbd2d596a8744daf927b060eb1ffb, type: 3}
      propertyPath: m_RootOrder
      value: 9
      objectReference: {fileID: 0}
    - target: {fileID: 4000010670910742, guid: 42cdbd2d596a8744daf927b060eb1ffb, type: 3}
      propertyPath: m_LocalPosition.x
      value: 0.43270493
      objectReference: {fileID: 0}
    - target: {fileID: 4000010670910742, guid: 42cdbd2d596a8744daf927b060eb1ffb, type: 3}
      propertyPath: m_LocalPosition.y
      value: -14.866735
      objectReference: {fileID: 0}
    - target: {fileID: 4000010670910742, guid: 42cdbd2d596a8744daf927b060eb1ffb, type: 3}
      propertyPath: m_LocalPosition.z
      value: -63.11
      objectReference: {fileID: 0}
    - target: {fileID: 4000010670910742, guid: 42cdbd2d596a8744daf927b060eb1ffb, type: 3}
      propertyPath: m_LocalRotation.w
      value: 0.7071068
      objectReference: {fileID: 0}
    - target: {fileID: 4000010670910742, guid: 42cdbd2d596a8744daf927b060eb1ffb, type: 3}
      propertyPath: m_LocalRotation.x
      value: -0.7071068
      objectReference: {fileID: 0}
    - target: {fileID: 4000010670910742, guid: 42cdbd2d596a8744daf927b060eb1ffb, type: 3}
      propertyPath: m_LocalRotation.y
      value: 0
      objectReference: {fileID: 0}
    - target: {fileID: 4000010670910742, guid: 42cdbd2d596a8744daf927b060eb1ffb, type: 3}
      propertyPath: m_LocalRotation.z
      value: -0
      objectReference: {fileID: 0}
    m_RemovedComponents: []
  m_SourcePrefab: {fileID: 100100000, guid: 42cdbd2d596a8744daf927b060eb1ffb, type: 3}
--- !u!1001 &2014769893
PrefabInstance:
  m_ObjectHideFlags: 0
  serializedVersion: 2
  m_Modification:
    m_TransformParent: {fileID: 0}
    m_Modifications:
    - target: {fileID: 1000013185961336, guid: 3d7b7316ae89b0e4e88111499c1ba7f5, type: 3}
      propertyPath: m_Name
      value: Portable_wall (3)
      objectReference: {fileID: 0}
    - target: {fileID: 4000010476239296, guid: 3d7b7316ae89b0e4e88111499c1ba7f5, type: 3}
      propertyPath: m_RootOrder
      value: 10
      objectReference: {fileID: 0}
    - target: {fileID: 4000010476239296, guid: 3d7b7316ae89b0e4e88111499c1ba7f5, type: 3}
      propertyPath: m_LocalPosition.x
      value: -7.35
      objectReference: {fileID: 0}
    - target: {fileID: 4000010476239296, guid: 3d7b7316ae89b0e4e88111499c1ba7f5, type: 3}
      propertyPath: m_LocalPosition.y
      value: -14.866735
      objectReference: {fileID: 0}
    - target: {fileID: 4000010476239296, guid: 3d7b7316ae89b0e4e88111499c1ba7f5, type: 3}
      propertyPath: m_LocalPosition.z
      value: -63.34
      objectReference: {fileID: 0}
    - target: {fileID: 4000010476239296, guid: 3d7b7316ae89b0e4e88111499c1ba7f5, type: 3}
      propertyPath: m_LocalRotation.w
      value: 0.7071068
      objectReference: {fileID: 0}
    - target: {fileID: 4000010476239296, guid: 3d7b7316ae89b0e4e88111499c1ba7f5, type: 3}
      propertyPath: m_LocalRotation.x
      value: -0.7071068
      objectReference: {fileID: 0}
    - target: {fileID: 4000010476239296, guid: 3d7b7316ae89b0e4e88111499c1ba7f5, type: 3}
      propertyPath: m_LocalRotation.y
      value: 0
      objectReference: {fileID: 0}
    - target: {fileID: 4000010476239296, guid: 3d7b7316ae89b0e4e88111499c1ba7f5, type: 3}
      propertyPath: m_LocalRotation.z
      value: -0
      objectReference: {fileID: 0}
    m_RemovedComponents: []
  m_SourcePrefab: {fileID: 100100000, guid: 3d7b7316ae89b0e4e88111499c1ba7f5, type: 3}
