[api-updater (non-obsolete-error-filter)] 23/3/2023 12:26:46 AM : Starting /Applications/Unity/Hub/Editor/2020.3.45f1/Unity.app/Contents/Tools/ScriptUpdater/APIUpdater.NonObsoleteApiUpdaterDetector.exe
[api-updater (non-obsolete-error-filter)] 
----------------------------------
jit/startup time      : 54.06ms
moved types parse time: 46ms
candidates parse time : 1ms
C# parse time         : 236ms
candidates check time : 41ms
console write time    : 0ms

[api-updater (non-obsolete-error-filter)] 23/3/2023 10:47:05 AM : Starting /Applications/Unity/Hub/Editor/2020.3.45f1/Unity.app/Contents/Tools/ScriptUpdater/APIUpdater.NonObsoleteApiUpdaterDetector.exe
[api-updater (non-obsolete-error-filter)] 
----------------------------------
jit/startup time      : 160.134ms
moved types parse time: 58ms
candidates parse time : 1ms
C# parse time         : 346ms
candidates check time : 51ms
console write time    : 1ms

[api-updater (non-obsolete-error-filter)] 23/3/2023 10:48:08 AM : Starting /Applications/Unity/Hub/Editor/2020.3.45f1/Unity.app/Contents/Tools/ScriptUpdater/APIUpdater.NonObsoleteApiUpdaterDetector.exe
[api-updater (non-obsolete-error-filter)] 
----------------------------------
jit/startup time      : 54.582ms
moved types parse time: 65ms
candidates parse time : 2ms
C# parse time         : 333ms
candidates check time : 49ms
console write time    : 0ms

[api-updater (non-obsolete-error-filter)] 30/3/2023 9:07:29 PM : Starting /Applications/Unity/Unity.app/Contents/Tools/ScriptUpdater/APIUpdater.NonObsoleteApiUpdaterDetector.exe
[api-updater (non-obsolete-error-filter)] 
----------------------------------
jit/startup time      : 204.71ms
moved types parse time: 74ms
candidates parse time : 1ms
C# parse time         : 406ms
candidates check time : 39ms
console write time    : 0ms

